a.

    if (y == 8)
    if (x == 5) {
    cout << "@@@@@" << endl;
    else {
        cout << "#####" << endl;
    }
    cout << "$$$$$" << endl;
    cout << "&&&&&" << endl;
    }


b.

    if (y == 8) {
        if (x == 5) {
            cout << "@@@@@" << endl;
        } else {
            cout << "#####" << endl;
            cout << "$$$$$" << endl;
            cout << "&&&&&" << endl; 
        }
    }


c.

    if (y == 8) {  
        if (x == 5) {
            cout << "@@@@@" << endl;
            else {
                cout << "#####" << endl;
                cout << "$$$$$" << endl;
            }
            cout << "&&&&&" << endl;
        }
    }



d. 

    if (y == 8) {
        if (x == 5) {
            cout << "@@@@@" << endl;
        }
    } else {
        cout << "#####" << endl;
        cout << "$$$$$" << endl;
        cout << "&&&&&" << endl; 
        }

